[
  {
    "url": "https://i.bcow.xyz",
    "countries": [
      "nl"
    ],
    "cloudflare": false
  },
  {
    "url": "https://rimgo.pussthecat.org",
    "countries": [
      "de"
    ],
    "cloudflare": false
  },
  {
    "url": "https://rimgo.totaldarkness.net",
    "countries": [
      "ca"
    ],
    "cloudflare": false
  },
  {
    "url": "https://rimgo.bus-hit.me",
    "countries": [
      "ca"
    ],
    "cloudflare": false
  },
  {
    "url": "https://rimgo.esmailelbob.xyz",
    "onion": "http://rimgo.esmail5pdn24shtvieloeedh7ehz3nrwcdivnfhfcedl7gf4kwddhkqd.onion",
    "countries": [
      "ca"
    ],
    "cloudflare": false
  },
  {
    "url": "https://i.actionsack.com",
    "countries": [
      "us"
    ],
    "cloudflare": true
  },
  {
    "url": "https://rimgo.privacydev.net",
    "countries": [
      "us"
    ],
    "cloudflare": false
  },
  {
    "url": "https://imgur.artemislena.eu",
    "countries": [
      "de"
    ],
    "cloudflare": false
  },
  {
    "url": "https://rimgo.vern.cc",
    "onion": "http://rimgo.vernccvbvyi5qhfzyqengccj7lkove6bjot2xhh5kajhwvidqafczrad.onion",
    "countries": [
      "ca"
    ],
    "cloudflare": false
  },
  {
    "url": "https://rimgo.encrypted-data.xyz",
    "countries": [
      "fr"
    ],
    "cloudflare": true
  },
  {
    "url": "https://rimgo.mha.fi",
    "onion": "http://rimgo.micohauwkjbyw5meacrb4ipicwvwg4xtzl7y7viv53kig2mdcsvwkyyd.onion",
    "countries": [
      "fi"
    ],
    "cloudflare": false
  }
]
